{
  "name": "flexstart",
  "version": "1.0.0",
  "factorio_version": "0.17",
  "title": "Flexible Starting Equipment",
  "author": "Matthew Incorvia",
  "license": "GPL v3",
  "description": "Gives extra equipment and items at the start of the game.\n\nDefault settings are minimal: some extra burner miners, furnaces, iron, coal, and an SMG, but it was designed to give access to modular armor and construction bots at the beginning of the game. Set everything to zero for an absolutely minimal start, or give yourself power armor mk2 and fusion reactors.\n\nBy default, gives you the same equipment (but not items) on respawn as well, preventing recklessness from leaving you with a stack of useless pistols.\n\nhttps://gitlab.com/mjincorvia/factorio",
  "dependencies": ["base >= 0.17.0"]
}
